#      Emp No   Last Name  First Name      Status        Type     Annual 
#-----------------------------------------------------------------------
         400       Ethan      WILSON     Current          W2      121000
         401     JOHNSON       BROWN     Current          W2      151000
         402        Emma     JACKSON     Current        1099      190000
         403       Caden       SMITH     Current        1099      170000
         404         Zoe       SMITH     Current        1099      151000
         405    Ava Liam      GARCIA     Current          W2      131000
         406       Ethan    ROBINSON     Current        1099      120000
         407      Elijah       WHITE      Former          W2      111000
         408       SMITH      HARRIS     Current          W2      141000
         409 Riley Mason       MOORE     Current        1099      131000
         410    Ava Liam    WILLIAMS     Current        1099      130000
         411    Isabella      GARCIA     Current        1099      111000
         412         Zoe      MARTIN     Current        1099      160000
         413       Ethan       DAVIS     Current        1099      110000
         414   Charlotte      GARCIA     Current        1099      180000
         415       Aiden       MOORE     Current          W2      161000
         416       SMITH    THOMPSON     Current          W2      170000
         417    Isabella      THOMAS     Current          W2      170000
         418      Olivia      HARRIS     Current          W2      150000
         419     JOHNSON      MARTIN     Current          W2      121000
         420       SMITH       SMITH     Current        1099      180000
         421 Riley Mason       WHITE     Current          W2      151000
         422       Caden    WILLIAMS     Current          W2      120000
         423     Jackson      THOMAS     Current          W2      171000
         424 Riley Mason    THOMPSON     Current          W2      160000
         425     JOHNSON     JACKSON     Current        1099      131000
         426      Sophia      TAYLOR     Current          W2      160000
         427 Riley Mason       WHITE     Current        1099      141000
         428      Oliver      MILLER     Current          W2      180000
         429 Riley Mason       BROWN     Current          W2      170000
         430       SMITH       DAVIS     Current          W2      150000
         431       Lucas    THOMPSON      Former          W2      181000
         432   Charlotte      MARTIN     Current        1099      111000
         433       Caden    ROBINSON      Former        1099      161000
         434   Charlotte     JACKSON     Current          W2      170000
         435    Mia Noah       WHITE      Former          W2      111000
         436       SMITH       MOORE      Former          W2      180000
         437      Elijah      MARTIN     Current        1099      111000
         438     Jackson    THOMPSON      Former          W2      141000
         439       Ethan      MARTIN      Former          W2      190000
         440   Charlotte       SMITH     Current        1099      120000
         441    Isabella    THOMPSON     Current        1099      181000
         442       SMITH       MOORE     Current        1099      110000
         443      Oliver      THOMAS      Former          W2      100000
         444       Aiden      TAYLOR      Former          W2      150000
         445       Lucas      GARCIA     Current          W2      171000
         446      Olivia       MOORE      Former          W2      121000
         447       SMITH      HARRIS     Current          W2      151000
         448    WILLIAMS    MARTINEZ     Current        1099      130000
         449    Mia Noah      WILSON     Current          W2      160000
         450      Olivia       WHITE     Current          W2      141000
         451       Lucas    ANDERSON     Current          W2      130000
         452      Elijah      GARCIA     Current          W2      110000
         453      Oliver    MARTINEZ     Current        1099      110000
         454        Emma       SMITH     Current          W2      180000
         455         Zoe      TAYLOR     Current        1099      101000
         456      Sophia      HARRIS     Current          W2      101000
         457    Ava Liam      MARTIN     Current          W2      161000
         458       SMITH      MARTIN     Current          W2      100000
         459     JOHNSON      HARRIS      Former        1099      150000
         460        Emma       JONES     Current          W2      170000
         461       Ethan      WILSON     Current        1099      130000
         462       Lucas       MOORE     Current          W2      101000
         463       Caden       BROWN     Current        1099      100000
         464        Aria    ANDERSON     Current          W2      101000
         465     JOHNSON       WHITE     Current          W2      141000
         466    WILLIAMS       SMITH     Current          W2      120000
         467        Aria      TAYLOR     Current        1099      100000
         468       Aiden       SMITH     Current          W2      180000
         469    WILLIAMS      MILLER     Current        1099      141000
         470     JOHNSON       BROWN     Current        1099      101000
         471        Aria    MARTINEZ     Current          W2      110000
         472      Sophia       DAVIS     Current          W2      130000
         473       Lucas       SMITH     Current          W2      171000
         474 Riley Mason       MOORE      Former        1099      110000
         475    Ava Liam    ANDERSON     Current          W2      150000
         476        Emma       SMITH     Current          W2      110000
         477      Sophia    ANDERSON     Current          W2      170000
         478       Lucas      HARRIS     Current          W2      121000
         479      Oliver      MARTIN     Current          W2      111000
         480      Oliver    ROBINSON     Current          W2      190000
         481      Elijah      MILLER      Former          W2      121000
         482      Elijah       SMITH     Current          W2      191000
         483     Jackson    MARTINEZ     Current        1099      110000
         484        Aria       MOORE      Former          W2      101000
         485         Zoe    MARTINEZ      Former          W2      130000
         486         Zoe      HARRIS     Current          W2      110000
         487      Elijah    WILLIAMS      Former          W2      111000
         488     Jackson      GARCIA     Current          W2      161000
         489   Charlotte     JOHNSON     Current          W2      130000
         490      Sophia     JOHNSON     Current        1099      170000
         491    Isabella    THOMPSON     Current          W2      190000
         492    Ava Liam    THOMPSON     Current        1099      100000
         493        Aria       BROWN     Current        1099      140000
         494     JOHNSON    MARTINEZ      Former          W2      190000
         495      Oliver    MARTINEZ     Current        1099      191000
         496    Mia Noah      HARRIS     Current        1099      161000
         497       Aiden      MARTIN      Former          W2      120000
         498      Elijah       BROWN      Former          W2      100000
         499       Caden      MARTIN     Current          W2      190000
         500   Charlotte      WILSON     Current        1099      140000
         501     Jackson    ROBINSON     Current          W2      131000
         502       Ethan       SMITH     Current          W2      181000
         503     JOHNSON       JONES     Current          W2      160000
         504    Isabella      WILSON     Current          W2      150000
         505      Olivia     JACKSON     Current        1099      171000
         506   Charlotte    ROBINSON     Current          W2      150000
         507        Aria    ROBINSON     Current        1099      191000
         508       Aiden       BROWN      Former          W2      170000
         509       Lucas       BROWN     Current          W2      101000
         510       Caden       JONES     Current        1099      171000
         511      Sophia      GARCIA      Former          W2      120000
         512       SMITH    ROBINSON     Current        1099      191000
         513    Isabella    ROBINSON     Current          W2      120000
         514     Jackson      MILLER     Current          W2      100000
         515   Charlotte      HARRIS     Current          W2      170000
         516      Olivia     JACKSON     Current          W2      161000
         517       Aiden    ANDERSON     Current          W2      160000
         518     Jackson      MARTIN     Current        1099      191000
         519 Riley Mason    ANDERSON     Current        1099      130000
         520        Aria      THOMAS     Current          W2      110000
         521 Riley Mason    ROBINSON     Current          W2      130000
         522       SMITH       MOORE     Current        1099      191000
         523      Oliver      THOMAS     Current          W2      111000
         524        Emma    ANDERSON      Former          W2      131000
         525    Mia Noah     JOHNSON     Current        1099      100000
         526     Jackson     JOHNSON     Current          W2      121000
         527    WILLIAMS      HARRIS     Current        1099      101000
         528 Riley Mason    ROBINSON     Current        1099      101000
         529       Caden    ROBINSON     Current          W2      121000
         530      Oliver       MOORE     Current          W2      111000
         531     Jackson      MARTIN     Current        1099      110000
         532 Riley Mason      GARCIA      Former        1099      170000
         533      Elijah      TAYLOR     Current        1099      180000
         534       Ethan       SMITH     Current          W2      130000
         535 Riley Mason      TAYLOR      Former          W2      141000
         536     JOHNSON       JONES     Current          W2      141000
         537      Sophia       SMITH     Current        1099      170000
         538    Mia Noah    THOMPSON     Current        1099      111000
         539   Charlotte       MOORE     Current          W2      130000
         540        Aria    ROBINSON     Current          W2      100000
         541      Sophia    ANDERSON     Current          W2      121000
         542    Isabella       BROWN      Former          W2      101000
         543    Mia Noah    THOMPSON     Current        1099      130000
         544     Jackson     JACKSON      Former        1099      181000
         545       Aiden      GARCIA     Current          W2      120000
         546 Riley Mason      TAYLOR     Current          W2      151000
         547   Charlotte       JONES     Current          W2      110000
         548    Ava Liam      THOMAS     Current          W2      140000
         549    WILLIAMS      GARCIA      Former          W2      150000
         550      Olivia    MARTINEZ      Former        1099      171000
         551    Mia Noah       SMITH     Current          W2      131000
         552 Riley Mason      TAYLOR     Current          W2      110000
         553      Sophia    ANDERSON      Former          W2      171000
         554        Aria    THOMPSON     Current          W2      191000
         555      Olivia    THOMPSON     Current        1099      141000
         556    Isabella    ROBINSON      Former          W2      170000
         557       Aiden       BROWN     Current          W2      120000
         558       Aiden       MOORE     Current        1099      160000
         559    Mia Noah     JOHNSON     Current          W2      141000
         560    Ava Liam       SMITH     Current          W2      191000
         561      Oliver      WILSON     Current          W2      190000
         562    Mia Noah      MILLER     Current          W2      130000
         563   Charlotte     JOHNSON     Current          W2      110000
         564    Isabella     JACKSON      Former          W2      170000
         565    Ava Liam      TAYLOR     Current          W2      131000
         566     Jackson     JACKSON      Former        1099      130000
         567 Riley Mason       MOORE     Current          W2      121000
         568 Riley Mason      HARRIS     Current        1099      190000
         569       Caden     JACKSON     Current          W2      120000
         570      Elijah     JOHNSON     Current        1099      161000
         571      Olivia       SMITH     Current          W2      151000
         572      Elijah    ANDERSON      Former        1099      181000
         573    Isabella     JACKSON     Current          W2      191000
         574       Aiden       DAVIS     Current          W2      191000
         575        Emma     JOHNSON     Current        1099      111000
         576    Isabella    ANDERSON     Current        1099      150000
         577 Riley Mason      TAYLOR     Current        1099      190000
         578        Aria    ANDERSON     Current          W2      100000
         579 Riley Mason      HARRIS     Current          W2      111000
         580      Sophia    ROBINSON     Current          W2      140000
         581 Riley Mason      TAYLOR      Former          W2      180000
         582     Jackson    WILLIAMS     Current        1099      120000
         583       SMITH    ROBINSON     Current        1099      161000
         584     Jackson      THOMAS     Current          W2      180000
         585        Emma       SMITH     Current          W2      160000
         586       Caden      THOMAS     Current          W2      151000
         587         Zoe      WILSON     Current          W2      151000
         588         Zoe       SMITH     Current        1099      190000
         589     JOHNSON      THOMAS      Former          W2      191000
         590     JOHNSON      MARTIN     Current          W2      161000
         591    Ava Liam    THOMPSON     Current        1099      121000
         592        Emma    ROBINSON     Current          W2      151000
         593    Mia Noah    THOMPSON     Current          W2      101000
         594       Caden    MARTINEZ     Current        1099      131000
         595       Aiden     JACKSON     Current          W2      190000
         596    Ava Liam     JOHNSON     Current          W2      170000
         597    Ava Liam    ROBINSON     Current          W2      141000
         598   Charlotte      HARRIS     Current          W2      170000
         599       Caden       SMITH     Current        1099      131000
